…
**ggeffects** supports labbeled data, which is especially useful for users who work with datafiles in _Stata_ or _SPSS_ format. Value and variable labels from model predictors are stored as attributes of the returned data frame. There are convenient methods to extract these labels (like `get_x_labels()`) in order to use them as axis or legend labels. However, the `plot()`-method does this automatically (see examples below).

## Examples

The main function is `ggpredict()`. `ggpredict()` requires at least one, but not more than three terms specified in the `terms`-argument. Predicted values of the response, along the values of the first term are calucalted, optionally grouped by the other terms specified in `terms`.

```
library(ggeffects)
library(sjlabelled)
data(efc)
efc$c172code <- as_factor(efc$c172code)
fit <- lm(barthtot ~ c12hour + neg_c_7 + c161sex + c172code, data = efc)

ggpredict(fit, terms = "c12hour")
#> # A tibble: 18 x 5
#>        x predicted conf.low conf.high group
#>    <dbl>     <dbl>    <dbl>     <dbl> <fct>
#>  1     0      75.4     73.3      77.6 1    
#>  2    10      72.9     70.9      74.9 1    
#>  3    20      70.4     68.6      72.2 1    
#>  4    30      67.8     66.1      69.5 1    
#>  5    40      65.3     63.7      67.0 1    
#>  6    50      62.8     61.1      64.4 1    
#>  7    60      60.2     58.5      62.0 1    
#>  8    70      57.7     55.8      59.6 1    
#>  9    80      55.2     53.1      57.3 1    
#> 10    90      52.6     50.3      55.0 1    
#> # ... with 8 more rows
```
…
