…
Interaction terms, splines and polynomial terms are also supported. The two main functions are `ggpredict()` and `ggaverage()`, however, there are some convenient wrapper-functions especially for polynomials or interactions. There is a generic `plot()`-method to plot the results using **ggplot2**.

## Examples

The returned data frames always have the same, consistent structure and column names, so it's easy to create ggplot-plots without the need to re-write the function call. `x` and `predicted` are the values for the x- and y-axis. `conf.low` and `conf.high` could be used as `ymin` and `ymax` aesthetics for ribbons to add confidence bands to the plot. `group` can be used as grouping-aesthetics, or for faceting.

`ggpredict()` requires at least one, but not more than three terms specified in the `terms`-argument. Predicted values of the response, along the values of the first term are calucalted, optionally grouped by the other terms specified in `terms`.

```
data(efc)
fit <- lm(barthtot ~ c12hour + neg_c_7 + c161sex + c172code, data = efc)

ggpredict(fit, terms = "c12hour")
#> # A tibble: 35 x 5
#>        x predicted conf.low conf.high group
#>    <dbl>     <dbl>    <dbl>     <dbl> <fct>
#>  1     0      75.4     73.3      77.6 1    
#>  2     5      74.2     72.1      76.3 1    
#>  3    10      72.9     70.9      74.9 1    
#>  4    15      71.6     69.8      73.5 1    
#>  5    20      70.4     68.6      72.2 1    
#>  6    25      69.1     67.4      70.9 1    
#>  7    30      67.8     66.1      69.5 1    
#>  8    35      66.6     64.9      68.2 1    
#>  9    40      65.3     63.7      67.0 1    
#> 10    45      64.0     62.4      65.7 1    
#> # ... with 25 more rows
```
…
`plot()` offers a few, but useful arguments, so it's easy to use.

With three variables, predictions can be grouped and faceted.

```
ggpredict(fit, terms = c("c12hour", "c172code", "c161sex"))
#> # A tibble: 210 x 6
#>        x predicted conf.low conf.high group                           facet     
#>    <dbl>     <dbl>    <dbl>     <dbl> <fct>                           <fct>     
#>  1     0      75.0     71.4      78.6 low level of education          [2] Female
#>  2     0      74.0     69.4      78.6 low level of education          [1] Male  
#>  3     0      75.7     73.3      78.1 intermediate level of education [2] Female
#>  4     0      74.7     71.1      78.3 intermediate level of education [1] Male  
#>  5     0      76.4     72.9      80.0 high level of education         [2] Female
#>  6     0      75.4     71.0      79.7 high level of education         [1] Male  
#>  7     5      73.7     70.2      77.2 low level of education          [2] Female
#>  8     5      72.7     68.1      77.2 low level of education          [1] Male  
#>  9     5      74.4     72.1      76.7 intermediate level of education [2] Female
#> 10     5      73.4     69.8      77.0 intermediate level of education [1] Male  
#> # ... with 200 more rows
…
