Tidy Data Frames of Marginal Effects • ggeffects
…
Marginal effects at the mean for different groups

The terms-argument accepts up to three model terms, where the second and third term indicate grouping levels. This allows predictions for the term in question at different levels for other model terms:

ggpredict(fit, terms = c("c12hour", "c172code"))
#> # A tibble: 54 x 5
#>        x predicted conf.low conf.high group                          
#>    <dbl>     <dbl>    <dbl>     <dbl> <fct>                          
#>  1     0      74.7     71.3      78.2 low level of education         
#>  2     0      75.5     73.3      77.6 intermediate level of education
#>  3     0      76.2     72.8      79.5 high level of education        
#>  4    10      72.2     68.9      75.5 low level of education         
#>  5    10      72.9     71.0      74.9 intermediate level of education
#>  6    10      73.7     70.4      76.9 high level of education        
#>  7    20      69.7     66.5      72.9 low level of education         
#>  8    20      70.4     68.6      72.2 intermediate level of education
#>  9    20      71.1     67.9      74.3 high level of education        
#> 10    30      67.1     64.0      70.3 low level of education         
#> # ... with 44 more rows
…
Finally, a second grouping structure can be defined, which will create another column named facet, which - as the name implies - might be used to create a facted plot:

mydf <- ggpredict(fit, terms = c("c12hour", "c172code", "c161sex"))
mydf
#> # A tibble: 108 x 6
#>        x predicted conf.low conf.high group                           facet     
#>    <dbl>     <dbl>    <dbl>     <dbl> <fct>                           <fct>     
#>  1     0      74.0     69.4      78.6 low level of education          [1] Male  
#>  2     0      75.0     71.4      78.6 low level of education          [2] Female
#>  3     0      74.7     71.1      78.3 intermediate level of education [1] Male  
#>  4     0      75.7     73.3      78.1 intermediate level of education [2] Female
#>  5     0      75.4     71.0      79.7 high level of education         [1] Male  
#>  6     0      76.4     72.9      80.0 high level of education         [2] Female
#>  7    10      71.4     66.9      75.9 low level of education          [1] Male  
#>  8    10      72.5     69.0      75.9 low level of education          [2] Female
#>  9    10      72.1     68.6      75.7 intermediate level of education [1] Male  
#> 10    10      73.2     71.0      75.4 intermediate level of education [2] Female
#> # ... with 98 more rows
…
#>  7    60      60.2     58.5      62.0 1    
#>  8    70      57.7     55.8      59.6 1    
#>  9    80      55.2     53.1      57.3 1    
#> 10    90      52.6     50.3      55.0 1    
#> 11   100      50.1     47.5      52.7 1    
#> 12   110      47.6     44.7      50.4 1    
#> 13   120      45.0     41.9      48.2 1    
#> 14   130      42.5     39.1      45.9 1    
#> 15   140      40.0     36.3      43.7 1    
#> 16   150      37.4     33.4      41.5 1    
#> 17   160      34.9     30.6      39.2 1    
#> 18   170      32.4     27.7      37.0 1    
#> 
#> [[2]]
#> # A tibble: 21 x 5
#>        x predicted conf.low conf.high group
#>    <dbl>     <dbl>    <dbl>     <dbl> <fct>
#>  1     7      75.9     73.2      78.6 1    
#>  2     8      73.6     71.2      75.9 1    
#>  3     9      71.3     69.2      73.3 1    
#>  4    10      69.0     67.1      70.8 1    
#>  5    11      66.7     65.0      68.4 1    
#>  6    12      64.4     62.7      66.0 1    
#>  7    13      62.1     60.4      63.8 1    
#>  8    14      59.8     57.9      61.7 1    
#>  9    15      57.5     55.3      59.7 1    
#> 10    16      55.2     52.7      57.7 1    
#> # ... with 11 more rows
…
This is especially useful when variables are, for instance, log-transformed. ggpredict() then typically only uses the range of the log-transformed variable, which is in most cases not what we want. In such situation, specify the range in the terms-argument.

data(mtcars)
mpg_model <- lm(mpg ~ log(hp), data = mtcars)

# x-values and predictions based on the log(hp)-values
ggpredict(mpg_model, "hp")
#> # A tibble: 22 x 5
#>        x predicted conf.low conf.high group
#>    <dbl>     <dbl>    <dbl>     <dbl> <fct>
#>  1  3.95      57.9     49.4      66.3 1    
#>  2  4.13      57.4     49.0      65.8 1    
#>  3  4.17      57.3     48.9      65.6 1    
#>  4  4.19      57.2     48.9      65.6 1    
#>  5  4.51      56.4     48.2      64.6 1    
#>  6  4.53      56.4     48.2      64.5 1    
#>  7  4.55      56.3     48.2      64.5 1    
#>  8  4.57      56.3     48.1      64.4 1    
#>  9  4.65      56.1     48.0      64.2 1    
#> 10  4.69      56.0     47.9      64.1 1    
#> # ... with 12 more rows
…
