Get marginal effects for two-way interactions from models — gginteraction • ggeffects
…
    Note

    gginteraction() only computes marginal effects for interaction terms,
      in particular two-way interactions. Use ggeffect for
      marginal effects for simple model terms. Or use ggpredict
      for predictions from any model terms, including two- or three-way
      interactions.

    Examples

data(efc)
efc$c172code <- sjmisc::to_factor(efc$c172code)
fit <- lm(barthtot ~ c12hour + c161sex + c172code * neg_c_7, data = efc)
gginteraction(fit)
#> # A tibble: 63 x 5
#>        x predicted conf.low conf.high group                          
#>  * <dbl>     <dbl>    <dbl>     <dbl> <fct>                          
#>  1     7      77.4     2.82      71.9 low level of education         
#>  2     7      76.5     1.77      73.0 intermediate level of education
#>  3     7      70.9     3.26      64.5 high level of education        
#>  4     8      74.4     2.50      69.5 low level of education         
#>  5     8      74.3     1.55      71.2 intermediate level of education
#>  6     8      69.4     2.89      63.7 high level of education        
#>  7     9      71.4     2.22      67.0 low level of education         
#>  8     9      72.0     1.35      69.4 intermediate level of education
#>  9     9      67.9     2.55      62.9 high level of education        
#> 10    10      68.4     2.00      64.4 low level of education         
#> # ... with 53 more rows

# this would give the same results
ggpredict(fit, terms = c("neg_c_7", "c172code"))
#> # A tibble: 63 x 5
#>        x predicted conf.low conf.high group                          
#>    <dbl>     <dbl>    <dbl>     <dbl> <fct>                          
#>  1     7      77.4     71.9      82.9 low level of education         
#>  2     7      76.5     73.0      80.0 intermediate level of education
#>  3     7      70.9     64.5      77.3 high level of education        
#>  4     8      74.4     69.5      79.3 low level of education         
#>  5     8      74.3     71.2      77.3 intermediate level of education
#>  6     8      69.4     63.8      75.1 high level of education        
#>  7     9      71.4     67.0      75.7 low level of education         
#>  8     9      72.0     69.4      74.7 intermediate level of education
#>  9     9      67.9     62.9      72.9 high level of education        
#> 10    10      68.4     64.4      72.3 low level of education         
#> # ... with 53 more rows
…
