Get marginal effects from model terms — ggaverage • ggeffects
…
#>  6    50      62.8     61.1      64.4 1    
#>  7    60      60.2     58.5      62.0 1    
#>  8    70      57.7     55.8      59.6 1    
#>  9    80      55.2     53.1      57.3 1    
#> 10    90      52.6     50.3      55.0 1    
#> 11   100      50.1     47.5      52.7 1    
#> 12   110      47.6     44.7      50.4 1    
#> 13   120      45.0     41.9      48.2 1    
#> 14   130      42.5     39.1      45.9 1    
#> 15   140      40.0     36.3      43.7 1    
#> 16   150      37.4     33.4      41.5 1    
#> 17   160      34.9     30.6      39.2 1    
#> 18   170      32.4     27.7      37.0 1    
ggpredict(fit, terms = "c12hour", full.data = TRUE)
#> # A tibble: 815 x 7
#>        x predicted conf.low conf.high observed residuals group
#>    <dbl>     <dbl>    <dbl>     <dbl>    <dbl>     <dbl> <fct>
#>  1     4      78.2     74.7      81.7       80      1.80 1    
#>  2     4      84.8     80.9      88.6       75     -9.77 1    
#>  3     4      78.6     74.3      82.9       75     -3.60 1    
#>  4     4      83.2     78.7      87.7      100     16.8  1    
#>  5     4      74.0     69.7      78.3       95     21.0  1    
#>  6     4      74.3     72.0      76.7       15    -59.3  1    
#>  7     4      69.7     67.1      72.3       50    -19.7  1    
#>  8     4      65.1     62.0      68.3       95     29.9  1    
#>  9     4      71.7     67.3      76.1       95     23.3  1    
#> 10     4      74.3     72.0      76.7       80      5.67 1    
#> # ... with 805 more rows
ggpredict(fit, terms = c("c12hour", "c172code"))
#> Following variables had many unique values and were prettified: c12hour. Use `pretty = FALSE` to get smoother plots with all values, however, at the cost of increased memory usage.
#> # A tibble: 54 x 5
#>        x predicted conf.low conf.high group                          
#>    <dbl>     <dbl>    <dbl>     <dbl> <fct>                          
#>  1     0      74.7     71.3      78.2 low level of education         
#>  2     0      75.5     73.3      77.6 intermediate level of education
#>  3     0      76.2     72.8      79.5 high level of education        
#>  4    10      72.2     68.9      75.5 low level of education         
#>  5    10      72.9     71.0      74.9 intermediate level of education
#>  6    10      73.7     70.4      76.9 high level of education        
#>  7    20      69.7     66.5      72.9 low level of education         
#>  8    20      70.4     68.6      72.2 intermediate level of education
#>  9    20      71.1     67.9      74.3 high level of education        
#> 10    30      67.1     64.0      70.3 low level of education         
#> # ... with 44 more rows
ggpredict(fit, terms = c("c12hour", "c172code", "c161sex"))
#> Following variables had many unique values and were prettified: c12hour. Use `pretty = FALSE` to get smoother plots with all values, however, at the cost of increased memory usage.
#> # A tibble: 108 x 6
#>        x predicted conf.low conf.high group                          
#>    <dbl>     <dbl>    <dbl>     <dbl> <fct>                          
#>  1     0      74.0     69.4      78.6 low level of education         
#>  2     0      75.0     71.4      78.6 low level of education         
#>  3     0      74.7     71.1      78.3 intermediate level of education
#>  4     0      75.7     73.3      78.1 intermediate level of education
#>  5     0      75.4     71.0      79.7 high level of education        
#>  6     0      76.4     72.9      80.0 high level of education        
#>  7    10      71.4     66.9      75.9 low level of education         
#>  8    10      72.5     69.0      75.9 low level of education         
#>  9    10      72.1     68.6      75.7 intermediate level of education
#> 10    10      73.2     71.0      75.4 intermediate level of education
#>    facet     
#>    <fct>     
#>  1 [1] Male  
#>  2 [2] Female
#>  3 [1] Male  
#>  4 [2] Female
#>  5 [1] Male  
#>  6 [2] Female
#>  7 [1] Male  
#>  8 [2] Female
#>  9 [1] Male  
#> 10 [2] Female
#> # ... with 98 more rows

# only range of 40 to 60 for variable 'c12hour'
ggpredict(fit, terms = "c12hour [40:60]")
#> # A tibble: 21 x 5
#>        x predicted conf.low conf.high group
#>    <dbl>     <dbl>    <dbl>     <dbl> <fct>
#>  1    40      65.3     63.7      67.0 1    
#>  2    41      65.1     63.4      66.7 1    
#>  3    42      64.8     63.2      66.5 1    
#>  4    43      64.6     62.9      66.2 1    
#>  5    44      64.3     62.6      65.9 1    
#>  6    45      64.0     62.4      65.7 1    
#>  7    46      63.8     62.1      65.4 1    
#>  8    47      63.5     61.9      65.2 1    
#>  9    48      63.3     61.6      64.9 1    
#> 10    49      63.0     61.4      64.7 1    
#> # ... with 11 more rows
…
# level indication also works for factors with non-numeric levels
# and in combination with numeric levels for other variables
library(sjlabelled)
data(efc)
efc$c172code <- as_label(efc$c172code)
fit <- lm(barthtot ~ c12hour + neg_c_7 + c161sex + c172code, data = efc)
ggpredict(fit, terms = c("c12hour",
  "c172code [low level of education, high level of education]",
  "c161sex [1]"))
#> Following variables had many unique values and were prettified: c12hour. Use `pretty = FALSE` to get smoother plots with all values, however, at the cost of increased memory usage.
#> # A tibble: 36 x 6
#>        x predicted conf.low conf.high group                   facet   
#>    <dbl>     <dbl>    <dbl>     <dbl> <fct>                   <fct>   
#>  1     0      72.8     67.9      77.7 low level of education  [1] Male
#>  2     0      74.0     69.2      78.8 high level of education [1] Male
#>  3    10      70.3     65.5      75.1 low level of education  [1] Male
#>  4    10      71.5     66.8      76.2 high level of education [1] Male
#>  5    20      67.7     63.0      72.5 low level of education  [1] Male
#>  6    20      69.0     64.3      73.7 high level of education [1] Male
#>  7    30      65.2     60.5      69.9 low level of education  [1] Male
#>  8    30      66.4     61.7      71.1 high level of education [1] Male
#>  9    40      62.7     58.0      67.3 low level of education  [1] Male
#> 10    40      63.9     59.2      68.6 high level of education [1] Male
#> # ... with 26 more rows
…
